<svg width="24" height="24" viewBox="0 0 24 24" fill="none" xmlns="http://www.w3.org/2000/svg">
<rect width="24" height="24" rx="5" fill="#1D4CA1"/>
<path d="M12.5 7.875C13.8983 7.875 15.125 9.02038 15.125 10.3259C15.125 11.6791 14.0343 13.4461 12.5 15.8651C10.9657 13.4461 9.875 11.6791 9.875 10.3259C9.875 9.02038 11.1017 7.875 12.5 7.875ZM12.5 7C10.6634 7 9 8.48881 9 10.3259C9 12.1625 10.5177 14.3552 12.5 17.5C14.4823 14.3552 16 12.1625 16 10.3259C16 8.48881 14.3371 7 12.5 7V7ZM12.5 11.8125C11.7751 11.8125 11.1875 11.2249 11.1875 10.5C11.1875 9.77506 11.7751 9.1875 12.5 9.1875C13.2249 9.1875 13.8125 9.77506 13.8125 10.5C13.8125 11.2249 13.2249 11.8125 12.5 11.8125Z" fill="white"/>
</svg>
